Modelo de oferta de pescado
…
Os dados utilizados so do Propesq.

library(tidyverse)
library(kableExtra)

propesq <- "../data/propesq.rds" %>% read_rds()

corvina <- propesq %>%
  filter(valor_estimado > 0 & pescado == "Corvina") %>%
  mutate(preco = valor_estimado / qtd_descargas)

corvina

## # A tibble: 8,803 x 12
##      ano   mes municipio aparelho_de_pes~ nivel_taxonomico pescado    kg
##    <int> <int> <chr>     <chr>            <chr>            <chr>   <dbl>
##  1  1998     1 Canania  cerco-fixo       Peixe sseo      Corvina    18
##  2  1998     1 Canania  emalhe-de-fundo  Peixe sseo      Corvina  1339
##  3  1998     1 Canania  espinhis-diver~ Peixe sseo      Corvina    13
##  4  1998     1 Canania  espinhel-de-fun~ Peixe sseo      Corvina    48
##  5  1998     1 Canania  multi-artes      Peixe sseo      Corvina     4
##  6  1998     1 Ilha Com~ emalhe-de-fundo  Peixe sseo      Corvina    83
##  7  1998     1 Ilha Com~ emalhe-de-super~ Peixe sseo      Corvina    35
##  8  1998     2 Canania  arrasto-duplo    Peixe sseo      Corvina     8
##  9  1998     2 Canania  cerco-fixo       Peixe sseo      Corvina    12
## 10  1998     2 Canania  emalhe-de-fundo  Peixe sseo      Corvina  1257
## # ... with 8,793 more rows, and 5 more variables: qtd_descargas <int>,
## #   qtd_unidades_produtivas <int>, valor_estimado <dbl>, periodo <date>,
## #   preco <dbl>
…
