…
``` r
library(tidyverse)
library(kableExtra)

propesq <- "../data/propesq.rds" %>% read_rds()

corvina <- propesq %>%
  filter(valor_estimado > 0 & pescado == "Corvina") %>%
  mutate(preco = valor_estimado / qtd_descargas)

corvina
```

    ## # A tibble: 8,803 x 12
    ##      ano   mes municipio aparelho_de_pes~ nivel_taxonomico pescado    kg
    ##    <int> <int> <chr>     <chr>            <chr>            <chr>   <dbl>
    ##  1  1998     1 Cananéia  cerco-fixo       Peixe Ósseo      Corvina    18
    ##  2  1998     1 Cananéia  emalhe-de-fundo  Peixe Ósseo      Corvina  1339
    ##  3  1998     1 Cananéia  espinhéis-diver~ Peixe Ósseo      Corvina    13
    ##  4  1998     1 Cananéia  espinhel-de-fun~ Peixe Ósseo      Corvina    48
    ##  5  1998     1 Cananéia  multi-artes      Peixe Ósseo      Corvina     4
    ##  6  1998     1 Ilha Com~ emalhe-de-fundo  Peixe Ósseo      Corvina    83
    ##  7  1998     1 Ilha Com~ emalhe-de-super~ Peixe Ósseo      Corvina    35
    ##  8  1998     2 Cananéia  arrasto-duplo    Peixe Ósseo      Corvina     8
    ##  9  1998     2 Cananéia  cerco-fixo       Peixe Ósseo      Corvina    12
    ## 10  1998     2 Cananéia  emalhe-de-fundo  Peixe Ósseo      Corvina  1257
    ## # ... with 8,793 more rows, and 5 more variables: qtd_descargas <int>,
    ## #   qtd_unidades_produtivas <int>, valor_estimado <dbl>, periodo <date>,
    ## #   preco <dbl>
…
